{
"relationships": [],
    "fields": [
        {
            "fieldId": 1,
            "fieldName": "content",
            "fieldType": "String"
        },
        {
            "fieldId": 2,
            "fieldName": "endDate",
            "fieldType": "LocalDate"
        },
        {
            "fieldId": 3,
            "fieldName": "done",
            "fieldType": "Boolean"
        }
    ],
    "changelogDate": "20150921223140",
    "dto": "no",
    "pagination": "no"
}
